Hex-to-7seg_Decoder/simulation/questa/msim_transcript
# Reading C:/intelFPGA/18.1/modelsim_ase/tcl/vsim/pref.tcl
# do Hex-to-7seg_Decoder_run_msim_rtl_verilog.do
# if {[file exists rtl_work]} {
# 	vdel -lib rtl_work -all
# }
# vlib rtl_work
# vmap work rtl_work
# Model Technology ModelSim - Intel FPGA Edition vmap 10.5b Lib Mapping Utility 2016.10 Oct  5 2016
# vmap work rtl_work 
# Copying C:/intelFPGA/18.1/modelsim_ase/win32aloem/../modelsim.ini to modelsim.ini
# Modifying modelsim.ini
# 
# vlog -vlog01compat -work work +incdir+D:/HDL/Hex-to-7seg_Decoder {D:/HDL/Hex-to-7seg_Decoder/Hex_to_7seg_Decoder.v}
# Model Technology ModelSim - Intel FPGA Edition vlog 10.5b Compiler 2016.10 Oct  5 2016
# Start time: 16:03:45 on Oct 16,2024
# vlog -reportprogress 300 -vlog01compat -work work "+incdir+D:/HDL/Hex-to-7seg_Decoder" D:/HDL/Hex-to-7seg_Decoder/Hex_to_7seg_Decoder.v 
# -- Compiling module Hex_to_7seg_Decoder
# 
# Top level modules:
# 	Hex_to_7seg_Decoder
# End time: 16:03:45 on Oct 16,2024, Elapsed time: 0:00:00
# Errors: 0, Warnings: 0
# 
# vlog -vlog01compat -work work +incdir+D:/HDL/Hex-to-7seg_Decoder {D:/HDL/Hex-to-7seg_Decoder/tb_Hex_to_7seg_Decoder.v}
# Model Technology ModelSim - Intel FPGA Edition vlog 10.5b Compiler 2016.10 Oct  5 2016
# Start time: 16:03:45 on Oct 16,2024
# vlog -reportprogress 300 -vlog01compat -work work "+incdir+D:/HDL/Hex-to-7seg_Decoder" D:/HDL/Hex-to-7seg_Decoder/tb_Hex_to_7seg_Decoder.v 
# -- Compiling module tb_Hex_to_7seg_Decoder
# ** Warning: D:/HDL/Hex-to-7seg_Decoder/tb_Hex_to_7seg_Decoder.v(45): (vlog-2600) [RDGN] - Redundant digits in numeric literal.
# 
# Top level modules:
# 	tb_Hex_to_7seg_Decoder
# End time: 16:03:45 on Oct 16,2024, Elapsed time: 0:00:00
# Errors: 0, Warnings: 1
# 
# vsim -t 1ps -L altera_ver -L lpm_ver -L sgate_ver -L altera_mf_ver -L altera_lnsim_ver -L fiftyfivenm_ver -L rtl_work -L work -voptargs="+acc"  tb_Hex_to_7seg_Decoder
# vsim -t 1ps -L altera_ver -L lpm_ver -L sgate_ver -L altera_mf_ver -L altera_lnsim_ver -L fiftyfivenm_ver -L rtl_work -L work -voptargs=""+acc"" tb_Hex_to_7seg_Decoder 
# Start time: 16:03:48 on Oct 16,2024
# Loading work.tb_Hex_to_7seg_Decoder
# Loading work.Hex_to_7seg_Decoder
# 
# add wave *
# view structure
# .main_pane.structure.interior.cs.body.struct
# view signals
# .main_pane.objects.interior.cs.body.tree
# run -all
# Hex to 7 Segment Decoder Simulation:
# DP is OFF...
# Time =  0 ns | DP = 0 | HEX = 0000 | SSeg = 00000011
# Time = 10 ns | DP = 0 | HEX = 0001 | SSeg = 10011111
# Time = 20 ns | DP = 0 | HEX = 0010 | SSeg = 00100101
# Time = 30 ns | DP = 0 | HEX = 0011 | SSeg = 00001101
# Time = 40 ns | DP = 0 | HEX = 0100 | SSeg = 10011001
# Time = 50 ns | DP = 0 | HEX = 0101 | SSeg = 01001001
# Time = 60 ns | DP = 0 | HEX = 0110 | SSeg = 01000001
# Time = 70 ns | DP = 0 | HEX = 0111 | SSeg = 00011111
# Time = 80 ns | DP = 0 | HEX = 1000 | SSeg = 00000001
# Time = 90 ns | DP = 0 | HEX = 1001 | SSeg = 00001001
# Time = 100 ns | DP = 0 | HEX = 1010 | SSeg = 00010001
# Time = 110 ns | DP = 0 | HEX = 1011 | SSeg = 11000001
# Time = 120 ns | DP = 0 | HEX = 1100 | SSeg = 01100011
# Time = 130 ns | DP = 0 | HEX = 1101 | SSeg = 10000101
# Time = 140 ns | DP = 0 | HEX = 1110 | SSeg = 01100001
# Time = 150 ns | DP = 0 | HEX = 1111 | SSeg = 01110001
# DP is ON...
# Time = 160 ns | DP = 1 | HEX = 0000 | SSeg = 00000010
# Time = 170 ns | DP = 1 | HEX = 0001 | SSeg = 10011110
# Time = 180 ns | DP = 1 | HEX = 0010 | SSeg = 00100100
# Time = 190 ns | DP = 1 | HEX = 0011 | SSeg = 00001100
# Time = 200 ns | DP = 1 | HEX = 0100 | SSeg = 10011000
# Time = 210 ns | DP = 1 | HEX = 0101 | SSeg = 01001000
# Time = 220 ns | DP = 1 | HEX = 0110 | SSeg = 01000000
# Time = 230 ns | DP = 1 | HEX = 0111 | SSeg = 00011110
# Time = 240 ns | DP = 1 | HEX = 1000 | SSeg = 00000000
# Time = 250 ns | DP = 1 | HEX = 1001 | SSeg = 00001000
# Time = 260 ns | DP = 1 | HEX = 1010 | SSeg = 00010000
# Time = 270 ns | DP = 1 | HEX = 1011 | SSeg = 11000000
# Time = 280 ns | DP = 1 | HEX = 1100 | SSeg = 01100010
# Time = 290 ns | DP = 1 | HEX = 1101 | SSeg = 10000100
# Time = 300 ns | DP = 1 | HEX = 1110 | SSeg = 01100000
# Time = 310 ns | DP = 1 | HEX = 1111 | SSeg = 01110000
# ** Note: $stop    : D:/HDL/Hex-to-7seg_Decoder/tb_Hex_to_7seg_Decoder.v(64)
#    Time: 320 ns  Iteration: 0  Instance: /tb_Hex_to_7seg_Decoder
# Break in Module tb_Hex_to_7seg_Decoder at D:/HDL/Hex-to-7seg_Decoder/tb_Hex_to_7seg_Decoder.v line 64
# End time: 16:05:46 on Oct 16,2024, Elapsed time: 0:01:58
# Errors: 0, Warnings: 0
